{
  "enabled": true,
  "redirectNumber": "The number to redirect the user on accept",
  "baseURL": "The base url of this app",
  "messages":{
    "welcome": "The full path to the greeting file.  E.x http://exampleapp.com/folder/greeting.mp3",
    "accept": "This is the message the user hears before being redirected.",
    "deny": "This is the message the user hears if they deny the call."
  },
  "twilio":{
    "phoneNumber": "Your twilio account phone number. Found here: https://www.twilio.com/user/account/voice/phone-numbers"
  },
  "timing":{
    "days":[
      "monday",
      "tuesday",
      "wednesday",
      "thursday",
      "friday"
    ],
    "startTime":"8",
    "endTime":"21"
  }
}